{
	"info": {
		"_postman_id": "75742936-8809-491c-87eb-04d8baf991bb",
		"name": "Institute",
		"schema": "https://schema.getpostman.com/json/collection/v2.1.0/collection.json"
	},
	"item": [
		{
			"name": "Admin",
			"item": [
				{
					"name": "Ad Update Student",
					"request": {
						"auth": {
							"type": "bearer",
							"bearer": [
								{
									"key": "token",
									"value": "eyJ0eXAiOiJKV1QiLCJhbGciOiJIUzUxMiJ9.eyJpYXQiOjE1NTc3NjA5NDUsImp0aSI6ImRGUUNTNWdvRXlJaWFsRjI3TWMyZWs1bGY2R2NZNHJEeWExZHRWajRBR3c9IiwiaXNzIjoicGhwLmluc3RpdHV0ZS51eSIsIm5iZiI6MTU1Nzc2MDk1MCwiZXhwIjoxNTU3NzY0NTUwLCJkYXRhIjp7ImlkIjo2LCJ1c2VybmFtZSI6ImRhcmtyaWRlciIsInR5cGUiOiJBZG1pbiJ9fQ.aWQ2JNj6_UtmBFKBIlbpBaLCtWqFGmSbS41F2_Boo1DzX-T96UWU7sAFXlD1SRmWBJy_KWDX9cV-sVKnY18p2A",
									"type": "string"
								}
							]
						},
						"method": "PATCH",
						"header": [
							{
								"key": "Content-Type",
								"name": "Content-Type",
								"type": "text",
								"value": "application/json"
							}
						],
						"body": {
							"mode": "raw",
							"raw": "{\n\"data\":{\n   \"target_document\":\"4823005-4\",\n   \"user\":{\n       \"document\": \"4823005-8\",\n       \"email\" : \"agustinkurosaki8@gmail.com\",\n       \"password\": \"08031997\",\n       \"name\": \"Moon\",\n       \"birthday\": \"08/03/1998\",\n       \"registeredSince\": \"08/03/2019\",\n       \"add\":{\n       \t\t\"phones\":[\"099358228\"]\n       },\n       \"remove\":{\n       \t\t\"phones\":[\"099261068\",\"09937659\"]\n       }\n\t}\n\t}\n}"
						},
						"url": {
							"raw": "http://php.institute.uy:1038/admins/students",
							"protocol": "http",
							"host": [
								"php",
								"institute",
								"uy"
							],
							"port": "1038",
							"path": [
								"admins",
								"students"
							]
						},
						"description": "Overwrites a student with new information"
					},
					"response": []
				},
				{
					"name": "Ad Update Teacher",
					"request": {
						"auth": {
							"type": "bearer",
							"bearer": [
								{
									"key": "token",
									"value": "eyJ0eXAiOiJKV1QiLCJhbGciOiJIUzUxMiJ9.eyJpYXQiOjE1NTc3NTk0MDksImp0aSI6Ink1cWF0OVVoYlh2V1pYUDM3Mmx5eFBcL2dlU3h4akdZS3ZRbitVY0NEUUxvPSIsImlzcyI6InBocC5pbnN0aXR1dGUudXkiLCJuYmYiOjE1NTc3NTk0MTQsImV4cCI6MTU1Nzc2MzAxNCwiZGF0YSI6eyJpZCI6NiwidXNlcm5hbWUiOiJkYXJrcmlkZXIiLCJ0eXBlIjoiQWRtaW4ifX0.g3d8or3PDgp7Ic_y2bhRegfrexIU_4aO0AMPMF4wBN5UOMlCSaEZTJmiS2tm-pwIzj2BIbgHx2HeXF5Ubx9SAg",
									"type": "string"
								}
							]
						},
						"method": "PATCH",
						"header": [
							{
								"key": "Content-Type",
								"name": "Content-Type",
								"value": "application/json",
								"type": "text"
							}
						],
						"body": {
							"mode": "raw",
							"raw": "{\n\"data\":{\n   \"target_document\":\"4823005-2\",\n   \"user\":{\n       \"document\": \"4823005-3\",\n       \"email\" : \"agustinkurosaki3@gmail.com\",\n       \"password\": \"080319978\",\n       \"name\": \"Dasherita\",\n       \"birthday\": \"08/03/1990\",\n       \"registeredSince\": \"08/03/2020\",\n       \"add\":{\n       \t\t\"phones\":[\"099358228\"]\n       },\n       \"remove\":{\n       \t\t\"phones\":[\"099261068\",\"09937659\"]\n       }\n   },\n   \"teacher\":{\n            \"grade\": 5,\n            \"add\":{\n       \t\t\"titles\": [\"LevelZero co-creator 1\"]\n    \t\t},\n    \t\t\"remove\":{\n    \t\t\t\"titles\": [\"Traductorado Público en Inglés\",\"Tecnólogo en Informática\", \"LevelZero co-creator\"]\n    \t\t}\n        }\n }\n}"
						},
						"url": {
							"raw": "http://php.institute.uy:1038/admins/teachers",
							"protocol": "http",
							"host": [
								"php",
								"institute",
								"uy"
							],
							"port": "1038",
							"path": [
								"admins",
								"teachers"
							]
						}
					},
					"response": []
				},
				{
					"name": "Register Classroom",
					"request": {
						"auth": {
							"type": "bearer",
							"bearer": [
								{
									"key": "token",
									"value": "eyJ0eXAiOiJKV1QiLCJhbGciOiJIUzUxMiJ9.eyJpYXQiOjE1NjI1MTQwODUsImp0aSI6Inh3WGRnXC9Vakx0aEVoR09rbXY0cDg5WXM1TDg5RFwvNUw1b0NzSlV0aUV2WT0iLCJpc3MiOiJsb2NhbGhvc3QiLCJuYmYiOjE1NjI1MTQwODUsImV4cCI6MTU2MjUyMTI4NSwiZGF0YSI6eyJpZCI6MiwidXNlcm5hbWUiOiJkYXJrcmlkZXIiLCJ0eXBlIjowfX0.08TQQgzjZIbOqzi5oZ_bWeVT9vELWNsq53AwkdUMUZVSdTv11zBdZ_5SxY547KbtIrO_q9JjyG0E6u8TCSvj7w",
									"type": "string"
								}
							]
						},
						"method": "POST",
						"header": [
							{
								"key": "Content-Type",
								"name": "Content-Type",
								"type": "text",
								"value": "application/json"
							}
						],
						"body": {
							"mode": "raw",
							"raw": "{ \n    \"name\":\"A64\",\n    \"capacity\":35,\n    \"floor\":-1,\n    \"preferences\":[7]\n}"
						},
						"url": {
							"raw": "http://php.institute.uy:1038/admins/classrooms",
							"protocol": "http",
							"host": [
								"php",
								"institute",
								"uy"
							],
							"port": "1038",
							"path": [
								"admins",
								"classrooms"
							]
						},
						"description": "Empty or null value in key \"name\" cause \"success: false\""
					},
					"response": []
				},
				{
					"name": "Register Area",
					"request": {
						"auth": {
							"type": "bearer",
							"bearer": [
								{
									"key": "token",
									"value": "eyJ0eXAiOiJKV1QiLCJhbGciOiJIUzUxMiJ9.eyJpYXQiOjE1NjIxODI2MDcsImp0aSI6IlJPOTFpN2dpMjcxUGk2T0N3V1ozS09tUCtINzA3VEVzRlwvdXcwQktGQzJVPSIsImlzcyI6InBocC5pbnN0aXR1dGUudXkiLCJuYmYiOjE1NjIxODI2MTIsImV4cCI6MTU2MjE4OTgxMiwiZGF0YSI6eyJpZCI6MiwidXNlcm5hbWUiOiJkYXJrcmlkZXIiLCJ0eXBlIjowfX0.STt2DeAb_QueN32nE849kgLW2ZFUQTke8CcWxifL8zPJAG57ACXKHklLpAlNf689sgrnOXa2ahxhJrBJUeYUPg",
									"type": "string"
								}
							]
						},
						"method": "POST",
						"header": [
							{
								"key": "Content-Type",
								"name": "Content-Type",
								"type": "text",
								"value": "application/json"
							}
						],
						"body": {
							"mode": "raw",
							"raw": "{\n\t\"name\": \"Matemáticas 10\"\n}"
						},
						"url": {
							"raw": "http://php.institute.uy:1038/admins/areas",
							"protocol": "http",
							"host": [
								"php",
								"institute",
								"uy"
							],
							"port": "1038",
							"path": [
								"admins",
								"areas"
							]
						},
						"description": "Creates a new area if there is no other one with the same name.\n\nEjemplo 1\n{\n\t\"name\": \"Matemáticas\",\n    \"teacher_id\": 2\n}\n\nEjemplo 2\n{\n\t\"name\": \"Matemáticas\"\n}"
					},
					"response": []
				},
				{
					"name": "Register Subject",
					"request": {
						"auth": {
							"type": "bearer",
							"bearer": [
								{
									"key": "token",
									"value": "eyJ0eXAiOiJKV1QiLCJhbGciOiJIUzUxMiJ9.eyJpYXQiOjE1NjI1MTQwODUsImp0aSI6Inh3WGRnXC9Vakx0aEVoR09rbXY0cDg5WXM1TDg5RFwvNUw1b0NzSlV0aUV2WT0iLCJpc3MiOiJsb2NhbGhvc3QiLCJuYmYiOjE1NjI1MTQwODUsImV4cCI6MTU2MjUyMTI4NSwiZGF0YSI6eyJpZCI6MiwidXNlcm5hbWUiOiJkYXJrcmlkZXIiLCJ0eXBlIjowfX0.08TQQgzjZIbOqzi5oZ_bWeVT9vELWNsq53AwkdUMUZVSdTv11zBdZ_5SxY547KbtIrO_q9JjyG0E6u8TCSvj7w",
									"type": "string"
								}
							]
						},
						"method": "POST",
						"header": [
							{
								"key": "Content-Type",
								"name": "Content-Type",
								"type": "text",
								"value": "application/json"
							}
						],
						"body": {
							"mode": "raw",
							"raw": "{\n\t\"name\":\"Álgebra 8\",\n\t\"area_id\":2,\n\t\"topics\":[\n\t\t\t\t{\"name\":\"temaX\",\"children\":[{\"name\":\"temaXX\",\"children\":[ {\"name\":\"temaXXX\", \"children\":null} ] }]},\n\t\t\t\t{\"name\":\"temaXXX\", \"children\":null}\n\t\t\t],\n\t\"prior_ids\": [3,4]\n}"
						},
						"url": {
							"raw": "http://php.institute.uy:1038/admins/subjects",
							"protocol": "http",
							"host": [
								"php",
								"institute",
								"uy"
							],
							"port": "1038",
							"path": [
								"admins",
								"subjects"
							]
						},
						"description": "1- Creates subject and basic data\n2- Releates the subject to an existing area\n3- Creates and persists syllabus and relates it to subject\n4- Creates and persists topics and relates it to the syllabus\n5- Persists subject"
					},
					"response": []
				},
				{
					"name": "Update Subject",
					"request": {
						"auth": {
							"type": "bearer",
							"bearer": [
								{
									"key": "token",
									"value": "eyJ0eXAiOiJKV1QiLCJhbGciOiJIUzUxMiJ9.eyJpYXQiOjE1NjI0NTY3OTksImp0aSI6Inlod0hYSzN3NTFKaTBmWU9sbFBITGQ3UklBTTNoSDdtY2MxaEM2OEJRQkE9IiwiaXNzIjoibG9jYWxob3N0IiwibmJmIjoxNTYyNDU2Nzk5LCJleHAiOjE1NjI0NjM5OTksImRhdGEiOnsiaWQiOjIsInVzZXJuYW1lIjoiZGFya3JpZGVyIiwidHlwZSI6MH19.gGxyH2utprH70PKm2iqLw7uXjR1dk1OWB4bv-YIBmuVTP-pgxt-D2zrKlgfMYxwU2eU7YOazbDKIbJzN0uGJcw",
									"type": "string"
								}
							]
						},
						"method": "PATCH",
						"header": [
							{
								"key": "Content-Type",
								"name": "Content-Type",
								"value": "application/json",
								"type": "text"
							}
						],
						"body": {
							"mode": "raw",
							"raw": "{\n\t\"id\":7,\n\t\"name\":\"Álgebra re tetuda\",\n\t\"topics\":[\n\t\t\t\t{\"name\":\"tema1\",\"children\":[{\"name\":\"tema2\",\"children\":[ {\"name\":\"tema3\", \"children\":null} ] }]},\n\t\t\t\t{\"name\":\"tema4\", \"children\":null}\n\t\t\t],\n\t\"priors\":[]\t\t\n}"
						},
						"url": {
							"raw": "http://php.institute.uy:1038/admins/subjects",
							"protocol": "http",
							"host": [
								"php",
								"institute",
								"uy"
							],
							"port": "1038",
							"path": [
								"admins",
								"subjects"
							]
						}
					},
					"response": []
				},
				{
					"name": "Register Topic",
					"request": {
						"method": "POST",
						"header": [
							{
								"key": "Content-Type",
								"name": "Content-Type",
								"type": "text",
								"value": "application/json"
							}
						],
						"body": {
							"mode": "raw",
							"raw": "{\n   \"data\":{\n    \t\"name\":\"tema X\",\n    \t\"syllabus_id\":1,\n    \t\"children_topics\":[{\"name\":\"tema XX\",\"children_topics\":[ {\"name\":\"tema XXX\", \"children_topics\":null} ] }],\n        \"parent_id\": 4\n    }\n}"
						},
						"url": {
							"raw": "http://php.institute.uy:1038/admins/topics",
							"protocol": "http",
							"host": [
								"php",
								"institute",
								"uy"
							],
							"port": "1038",
							"path": [
								"admins",
								"topics"
							]
						}
					},
					"response": []
				},
				{
					"name": "Update Topic",
					"request": {
						"method": "PATCH",
						"header": [
							{
								"key": "Content-Type",
								"name": "Content-Type",
								"type": "text",
								"value": "application/json"
							}
						],
						"body": {
							"mode": "raw",
							"raw": "{\n   \"data\":{\n   \t\t\"syllabus_id\":1,\n   \t\t\"target_name\":\"tema1\",\n    \t\"name\":\"tema5\"\n    }\n}"
						},
						"url": {
							"raw": "http://php.institute.uy:1038/admins/topics",
							"protocol": "http",
							"host": [
								"php",
								"institute",
								"uy"
							],
							"port": "1038",
							"path": [
								"admins",
								"topics"
							]
						},
						"description": "Update a topics name. Maybe expanded to to other "
					},
					"response": []
				},
				{
					"name": "Approve Register",
					"request": {
						"auth": {
							"type": "bearer",
							"bearer": [
								{
									"key": "token",
									"value": "eyJ0eXAiOiJKV1QiLCJhbGciOiJIUzUxMiJ9.eyJpYXQiOjE1NjIyODAwMjMsImp0aSI6ImNXRDZJU1hcL1JGTlpZblZNcnMxd2QyYUJsTzB6OUQrNU82MkVrb0FtQXF3PSIsImlzcyI6InBocC5pbnN0aXR1dGUudXkiLCJuYmYiOjE1NjIyODAwMjMsImV4cCI6MTU2MjI4NzIyMywiZGF0YSI6eyJpZCI6MiwidXNlcm5hbWUiOiJkYXJrcmlkZXIiLCJ0eXBlIjowfX0.gEogdEcYMG2QyvkHSlJ5lf0f0ilU-R__5YzHIqMCeZT_NGTHjeMtHjXrBWcsBdZ6Tl38kzoHh1q6QOePX0TRTw",
									"type": "string"
								}
							]
						},
						"method": "PATCH",
						"header": [
							{
								"key": "Content-Type",
								"name": "Content-Type",
								"type": "text",
								"value": "application/json"
							}
						],
						"body": {
							"mode": "raw",
							"raw": "{\n\t\"state\":false,\n\t\"ids\":[4]\n}\n"
						},
						"url": {
							"raw": "http://php.institute.uy:1038/admins/users/approve",
							"protocol": "http",
							"host": [
								"php",
								"institute",
								"uy"
							],
							"port": "1038",
							"path": [
								"admins",
								"users",
								"approve"
							]
						}
					},
					"response": []
				},
				{
					"name": "Exists Subject",
					"request": {
						"auth": {
							"type": "bearer",
							"bearer": [
								{
									"key": "token",
									"value": "eyJ0eXAiOiJKV1QiLCJhbGciOiJIUzUxMiJ9.eyJpYXQiOjE1NjIxNTA4MTcsImp0aSI6ImhjaFdmTTljejVNTjBtNjYxcmxsMERaOTRsM0g2eWgyQVZPd3VwNTVnaGs9IiwiaXNzIjoicGhwLmluc3RpdHV0ZS51eSIsIm5iZiI6MTU2MjE1MDgyMiwiZXhwIjoxNTYyMTU4MDIyLCJkYXRhIjp7ImlkIjoxNCwidXNlcm5hbWUiOiJkYXJrcmlkZXIiLCJ0eXBlIjowfX0.2GmRFricgPUncPUAjM-zGg9OfDjP83fpuYzCjnL3nKp4WffgydB_3mf83r2kaUy3KrPxoWVTr8Ookekdnbs18w",
									"type": "string"
								}
							]
						},
						"method": "GET",
						"header": [],
						"body": {
							"mode": "raw",
							"raw": ""
						},
						"url": {
							"raw": "http://php.institute.uy:1038/admins/subjects/exists?name=Álgebra 3",
							"protocol": "http",
							"host": [
								"php",
								"institute",
								"uy"
							],
							"port": "1038",
							"path": [
								"admins",
								"subjects",
								"exists"
							],
							"query": [
								{
									"key": "name",
									"value": "Álgebra 3"
								}
							]
						}
					},
					"response": []
				},
				{
					"name": "Exists Area",
					"request": {
						"auth": {
							"type": "bearer",
							"bearer": [
								{
									"key": "token",
									"value": "eyJ0eXAiOiJKV1QiLCJhbGciOiJIUzUxMiJ9.eyJpYXQiOjE1NjIxNTA4MTcsImp0aSI6ImhjaFdmTTljejVNTjBtNjYxcmxsMERaOTRsM0g2eWgyQVZPd3VwNTVnaGs9IiwiaXNzIjoicGhwLmluc3RpdHV0ZS51eSIsIm5iZiI6MTU2MjE1MDgyMiwiZXhwIjoxNTYyMTU4MDIyLCJkYXRhIjp7ImlkIjoxNCwidXNlcm5hbWUiOiJkYXJrcmlkZXIiLCJ0eXBlIjowfX0.2GmRFricgPUncPUAjM-zGg9OfDjP83fpuYzCjnL3nKp4WffgydB_3mf83r2kaUy3KrPxoWVTr8Ookekdnbs18w",
									"type": "string"
								}
							]
						},
						"method": "GET",
						"header": [],
						"body": {
							"mode": "raw",
							"raw": ""
						},
						"url": {
							"raw": "http://php.institute.uy:1038/admins/areas/exists?name=Matemáticas",
							"protocol": "http",
							"host": [
								"php",
								"institute",
								"uy"
							],
							"port": "1038",
							"path": [
								"admins",
								"areas",
								"exists"
							],
							"query": [
								{
									"key": "name",
									"value": "Matemáticas"
								}
							]
						}
					},
					"response": []
				},
				{
					"name": "Update Area",
					"request": {
						"auth": {
							"type": "bearer",
							"bearer": [
								{
									"key": "token",
									"value": "eyJ0eXAiOiJKV1QiLCJhbGciOiJIUzUxMiJ9.eyJpYXQiOjE1NjI1NzI3NzYsImp0aSI6InhvRmNBbzl4eVdsTlJmTDBpbWw4M0tVaVo1V0lxSE9hNFJZNThSTXhGVDg9IiwiaXNzIjoibG9jYWxob3N0IiwibmJmIjoxNTYyNTcyNzc2LCJleHAiOjE1NjI1Nzk5NzYsImRhdGEiOnsiaWQiOjEsInVzZXJuYW1lIjoia2lsbWVyNzY5IiwidHlwZSI6MH19.xLdStyq21KZckNuRkf8z6KKcTvKRrKmyN40EMztG748IrKZ-uRwkNj9RyPeL_Tcx4fXm-pladYTYvGPLg-loeA",
									"type": "string"
								}
							]
						},
						"method": "PATCH",
						"header": [
							{
								"key": "Content-Type",
								"name": "Content-Type",
								"value": "application/json",
								"type": "text"
							}
						],
						"body": {
							"mode": "raw",
							"raw": "{\n\t\"id\":3,\n\t\"id_teacher\": 23\n}"
						},
						"url": {
							"raw": "http://php.institute.uy:1038/admins/areas",
							"protocol": "http",
							"host": [
								"php",
								"institute",
								"uy"
							],
							"port": "1038",
							"path": [
								"admins",
								"areas"
							]
						}
					},
					"response": []
				},
				{
					"name": "Get All Users",
					"request": {
						"auth": {
							"type": "bearer",
							"bearer": [
								{
									"key": "token",
									"value": "eyJ0eXAiOiJKV1QiLCJhbGciOiJIUzUxMiJ9.eyJpYXQiOjE1NjIxODgwODUsImp0aSI6ImtmeU5vbktNSDJ0cUpIUGF1UXJZaFBjOVNxSEZqT091dmdpY3lzTW0zXC9zPSIsImlzcyI6InBocC5pbnN0aXR1dGUudXkiLCJuYmYiOjE1NjIxODgwOTAsImV4cCI6MTU2MjE5NTI5MCwiZGF0YSI6eyJpZCI6MiwidXNlcm5hbWUiOiJkYXJrcmlkZXIiLCJ0eXBlIjowfX0.na7ebltbjNlX7BwXcUlHwt12ZydIrIWAWowujcYWvVSMrj_mSJzblJEbuMtcTAGFp7S0dAOD1tGIMxwIN1MSyg",
									"type": "string"
								}
							]
						},
						"method": "GET",
						"header": [],
						"body": {
							"mode": "raw",
							"raw": ""
						},
						"url": {
							"raw": "http://php.institute.uy:1038/admins/users",
							"protocol": "http",
							"host": [
								"php",
								"institute",
								"uy"
							],
							"port": "1038",
							"path": [
								"admins",
								"users"
							]
						}
					},
					"response": []
				},
				{
					"name": "Get Users Unapproved",
					"request": {
						"auth": {
							"type": "bearer",
							"bearer": [
								{
									"key": "token",
									"value": "eyJ0eXAiOiJKV1QiLCJhbGciOiJIUzUxMiJ9.eyJpYXQiOjE1NjIyNjk3NjMsImp0aSI6ImtTbXErXC81blN0WHhsV3VDUGV5eEZZQzJMRkpXVlBvaG5XYWM2K3ZcL1Araz0iLCJpc3MiOiJwaHAuaW5zdGl0dXRlLnV5IiwibmJmIjoxNTYyMjY5NzY4LCJleHAiOjE1NjIyNzY5NjgsImRhdGEiOnsiaWQiOjIsInVzZXJuYW1lIjoiZGFya3JpZGVyIiwidHlwZSI6MH19.h3KGaK0Wk7jd3CjXwhuNTH3aPfKrxR5uW9C7myXsrRyW9UwDM2UHB56rPqXXBRbMjOrq-loQ4-ljLfx0UyLULQ",
									"type": "string"
								}
							]
						},
						"method": "GET",
						"header": [],
						"body": {
							"mode": "raw",
							"raw": ""
						},
						"url": {
							"raw": "http://php.institute.uy:1038/admins/users/unapproved",
							"protocol": "http",
							"host": [
								"php",
								"institute",
								"uy"
							],
							"port": "1038",
							"path": [
								"admins",
								"users",
								"unapproved"
							]
						}
					},
					"response": []
				},
				{
					"name": "Update Classroom",
					"request": {
						"auth": {
							"type": "bearer",
							"bearer": [
								{
									"key": "token",
									"value": "eyJ0eXAiOiJKV1QiLCJhbGciOiJIUzUxMiJ9.eyJpYXQiOjE1NjIyNzg5MzAsImp0aSI6IkkycjdTbXlLckIrRVVqYStOSm1nRUpFV2NWUnozZlRWZHJIOUl5dDFQZE09IiwiaXNzIjoicGhwLmluc3RpdHV0ZS51eSIsIm5iZiI6MTU2MjI3ODkzMCwiZXhwIjoxNTYyMjg2MTMwLCJkYXRhIjp7ImlkIjoyLCJ1c2VybmFtZSI6ImRhcmtyaWRlciIsInR5cGUiOjB9fQ.JEr3kttkgMb_QxKpUgWT3VmMzyB3l5vSFvsFRL0TxUtiL4y3rInxnA-LCFcQqbriuhMzgDyWiqqHMEWGUnguLg",
									"type": "string"
								}
							]
						},
						"method": "PATCH",
						"header": [
							{
								"key": "Content-Type",
								"name": "Content-Type",
								"value": "application/json",
								"type": "text"
							}
						],
						"body": {
							"mode": "raw",
							"raw": "{ \n\t\"id\":3,\n    \"name\":\"A55\",\n    \"capacity\":38\n}"
						},
						"url": {
							"raw": "http://php.institute.uy:1038/admins/classrooms",
							"protocol": "http",
							"host": [
								"php",
								"institute",
								"uy"
							],
							"port": "1038",
							"path": [
								"admins",
								"classrooms"
							]
						}
					},
					"response": []
				},
				{
					"name": "Exists Classroom",
					"request": {
						"auth": {
							"type": "bearer",
							"bearer": [
								{
									"key": "token",
									"value": "eyJ0eXAiOiJKV1QiLCJhbGciOiJIUzUxMiJ9.eyJpYXQiOjE1NjIyNzg5MzAsImp0aSI6IkkycjdTbXlLckIrRVVqYStOSm1nRUpFV2NWUnozZlRWZHJIOUl5dDFQZE09IiwiaXNzIjoicGhwLmluc3RpdHV0ZS51eSIsIm5iZiI6MTU2MjI3ODkzMCwiZXhwIjoxNTYyMjg2MTMwLCJkYXRhIjp7ImlkIjoyLCJ1c2VybmFtZSI6ImRhcmtyaWRlciIsInR5cGUiOjB9fQ.JEr3kttkgMb_QxKpUgWT3VmMzyB3l5vSFvsFRL0TxUtiL4y3rInxnA-LCFcQqbriuhMzgDyWiqqHMEWGUnguLg",
									"type": "string"
								}
							]
						},
						"method": "GET",
						"header": [],
						"body": {
							"mode": "raw",
							"raw": ""
						},
						"url": {
							"raw": "http://php.institute.uy:1038/admins/classrooms/exists?name=A5",
							"protocol": "http",
							"host": [
								"php",
								"institute",
								"uy"
							],
							"port": "1038",
							"path": [
								"admins",
								"classrooms",
								"exists"
							],
							"query": [
								{
									"key": "name",
									"value": "A5"
								}
							]
						}
					},
					"response": []
				},
				{
					"name": "Switch Admissions",
					"request": {
						"auth": {
							"type": "bearer",
							"bearer": [
								{
									"key": "token",
									"value": "eyJ0eXAiOiJKV1QiLCJhbGciOiJIUzUxMiJ9.eyJpYXQiOjE1NjIzNDU3NDYsImp0aSI6Im8rc1B5VHMxbG1DUmdKN3JNbzFlQmlzSXY4U24xdmNSMGM1bnJRcmJucW89IiwiaXNzIjoicGhwLmluc3RpdHV0ZS51eSIsIm5iZiI6MTU2MjM0NTc0NiwiZXhwIjoxNTYyMzUyOTQ2LCJkYXRhIjp7ImlkIjoyLCJ1c2VybmFtZSI6ImRhcmtyaWRlciIsInR5cGUiOjB9fQ.7ALFUO9L5-SMK755hgr5nxoHVtxpXkFWjgptc_YS2pN1njhzLhAnIQm1MDQuU-WxjZzWXfrrXnVsVI_ZldPsXA",
									"type": "string"
								}
							]
						},
						"method": "PATCH",
						"header": [
							{
								"key": "Content-Type",
								"name": "Content-Type",
								"value": "application/json",
								"type": "text"
							}
						],
						"body": {
							"mode": "raw",
							"raw": "true"
						},
						"url": {
							"raw": "http://php.institute.uy:1038/admins/admissions",
							"protocol": "http",
							"host": [
								"php",
								"institute",
								"uy"
							],
							"port": "1038",
							"path": [
								"admins",
								"admissions"
							]
						}
					},
					"response": []
				},
				{
					"name": "Register Lessons",
					"request": {
						"auth": {
							"type": "bearer",
							"bearer": [
								{
									"key": "token",
									"value": "eyJ0eXAiOiJKV1QiLCJhbGciOiJIUzUxMiJ9.eyJpYXQiOjE1NjI1NzI3NzYsImp0aSI6InhvRmNBbzl4eVdsTlJmTDBpbWw4M0tVaVo1V0lxSE9hNFJZNThSTXhGVDg9IiwiaXNzIjoibG9jYWxob3N0IiwibmJmIjoxNTYyNTcyNzc2LCJleHAiOjE1NjI1Nzk5NzYsImRhdGEiOnsiaWQiOjEsInVzZXJuYW1lIjoia2lsbWVyNzY5IiwidHlwZSI6MH19.xLdStyq21KZckNuRkf8z6KKcTvKRrKmyN40EMztG748IrKZ-uRwkNj9RyPeL_Tcx4fXm-pladYTYvGPLg-loeA",
									"type": "string"
								}
							]
						},
						"method": "POST",
						"header": [
							{
								"key": "Content-Type",
								"name": "Content-Type",
								"value": "application/json",
								"type": "text"
							}
						],
						"body": {
							"mode": "raw",
							"raw": "{\n\t\"id_subject\":7,\n\t\"week\":[\n\t\t\t{\n\t\t\t\t\"day\":6,\n\t\t\t\t\"periods\":[0,2],\n\t\t\t\t\"id_teacher\":[23,22,21],\n\t\t\t\t\"id_classroom\":[2,3,4]\n\t\t\t},\n\t\t\t{\n\t\t\t\t\"day\":3,\n\t\t\t\t\"periods\":[2,5],\n\t\t\t\t\"id_teacher\":[22,21,23],\n\t\t\t\t\"id_classroom\":[4,3,1]\n\t\t\t}\n\t\t]\n}"
						},
						"url": {
							"raw": "http://php.institute.uy:1038/admins/lessons",
							"protocol": "http",
							"host": [
								"php",
								"institute",
								"uy"
							],
							"port": "1038",
							"path": [
								"admins",
								"lessons"
							]
						}
					},
					"response": []
				},
				{
					"name": "Get Free Classrooms",
					"request": {
						"auth": {
							"type": "bearer",
							"bearer": [
								{
									"key": "token",
									"value": "eyJ0eXAiOiJKV1QiLCJhbGciOiJIUzUxMiJ9.eyJpYXQiOjE1NjI1MjE3NzYsImp0aSI6ImZqZTlBNDdDVXJLbGtRTWRhY0Q5dHdsK3hKdzVDUjJYMGNmS3djWVFIRlU9IiwiaXNzIjoibG9jYWxob3N0IiwibmJmIjoxNTYyNTIxNzc2LCJleHAiOjE1NjI1Mjg5NzYsImRhdGEiOnsiaWQiOjIsInVzZXJuYW1lIjoiZGFya3JpZGVyIiwidHlwZSI6MH19.AAR6fmaDtk6LZiySOB9eOskaqPHgB4UvI6ZNoCbQXFvvwIcU22dMpk8Vc8A0S2sO6B_UOt7tC3Hjyel9nHNibg",
									"type": "string"
								}
							]
						},
						"method": "GET",
						"header": [],
						"body": {
							"mode": "raw",
							"raw": ""
						},
						"url": {
							"raw": "http://php.institute.uy:1038/admins/classrooms/free?day=1&start=0&end=2&subject=6",
							"protocol": "http",
							"host": [
								"php",
								"institute",
								"uy"
							],
							"port": "1038",
							"path": [
								"admins",
								"classrooms",
								"free"
							],
							"query": [
								{
									"key": "day",
									"value": "1"
								},
								{
									"key": "start",
									"value": "0"
								},
								{
									"key": "end",
									"value": "2"
								},
								{
									"key": "subject",
									"value": "6"
								}
							]
						}
					},
					"response": []
				}
			]
		},
		{
			"name": "Testing",
			"item": [
				{
					"name": "Create Token",
					"request": {
						"auth": {
							"type": "bearer",
							"bearer": [
								{
									"key": "token",
									"value": "eyJ0eXAiOiJKV1QiLCJhbGciOiJIUzUxMiJ9.eyJpYXQiOjE1NTY3OTYwMTQsImp0aSI6ImN2QjJQVHFOd0Qza0dzWDhybjhUaDlTWnpEb0ZCODJXTzhOTjhXbHBpR0k9IiwiaXNzIjoicGhwLmluc3RpdHV0ZS51eSIsIm5iZiI6MTU1Njc5NjAxOSwiZXhwIjoxNTU2Nzk2MDc5LCJkYXRhIjp7InVzZXJJZCI6MSwidXNlck5hbWUiOiJBZ3VzIiwidXNlclR5cGUiOiJ0ZWFjaGVyIn19.9mEHdOZICKUni2lAM7w7QjJEjBM2f3L4YYEnSI2ElXc4LvKt-5ipRweZJNqdupJLUFihBf6_GsMPbYFMgxsVbQ",
									"type": "string"
								}
							]
						},
						"method": "POST",
						"header": [
							{
								"key": "Content-Type",
								"name": "Content-Type",
								"value": "application/json",
								"type": "text"
							}
						],
						"body": {
							"mode": "raw",
							"raw": "{\n\t\"user\" : {\n\t\t\"id\":6,\n\t\t\"username\":\"darkrider\",\n\t\t\"type\":\"SuperAdmin\"\n\t}\n}"
						},
						"url": {
							"raw": "http://php.institute.uy:1038/testing/token/create",
							"protocol": "http",
							"host": [
								"php",
								"institute",
								"uy"
							],
							"port": "1038",
							"path": [
								"testing",
								"token",
								"create"
							]
						}
					},
					"response": []
				},
				{
					"name": "Check Token",
					"request": {
						"auth": {
							"type": "bearer",
							"bearer": [
								{
									"key": "token",
									"value": "eyJ0eXAiOiJKV1QiLCJhbGciOiJIUzUxMiJ9.eyJpYXQiOjE1NjIyNzQyMDMsImp0aSI6IkY2YXpOSWdVaVlXYWNUc3IzT0hxcTJCRnZJVkZ0S0RQMGowbG0rUjM4cFk9IiwiaXNzIjoicGhwLmluc3RpdHV0ZS51eSIsIm5iZiI6MTU2MjI3NDIwOCwiZXhwIjoxNTYyMjgxNDA4LCJkYXRhIjp7ImlkIjoyLCJ1c2VybmFtZSI6ImRhcmtyaWRlciIsInR5cGUiOjB9fQ.ZHQmwsbQat8ywFKJABJJvuWmBxbWZiqIkkK0D_vOuN23CVOCnxgABtALYWn6thjhdMron3qU1Di3Ucf--KqCIA",
									"type": "string"
								}
							]
						},
						"method": "GET",
						"header": [],
						"body": {
							"mode": "raw",
							"raw": ""
						},
						"url": {
							"raw": "http://php.institute.uy:1038/testing/token/check",
							"protocol": "http",
							"host": [
								"php",
								"institute",
								"uy"
							],
							"port": "1038",
							"path": [
								"testing",
								"token",
								"check"
							]
						}
					},
					"response": []
				}
			]
		},
		{
			"name": "Public",
			"item": [
				{
					"name": "Login ",
					"request": {
						"method": "POST",
						"header": [
							{
								"key": "Content-Type",
								"name": "Content-Type",
								"value": "application/json",
								"type": "text"
							}
						],
						"body": {
							"mode": "raw",
							"raw": "{\n\t\"identifier\": \"pettey509\",\n\t\"type\": \"username\",\n\t\"password\": \"12345678\"\n}\n"
						},
						"url": {
							"raw": "http://php.institute.uy:1038/login",
							"protocol": "http",
							"host": [
								"php",
								"institute",
								"uy"
							],
							"port": "1038",
							"path": [
								"login"
							]
						}
					},
					"response": []
				},
				{
					"name": "Register Teacher",
					"request": {
						"method": "POST",
						"header": [
							{
								"key": "Content-Type",
								"name": "Content-Type",
								"value": "application/json",
								"type": "text"
							}
						],
						"body": {
							"mode": "raw",
							"raw": "{\n    \"document\": \"48230055\",\n    \"username\" : \"Laxus\",\n    \"password\": \"12345678\",\n    \"name\": \"Laxus\",\n    \"surname\": \"Dragnil\",\n    \"email\": \"laxus@gmail.com\",\n    \"birthday\": \"1997-03-08\",\n    \"phones\": [\"099261068\",\"09937659\"],\n    \"subjects\": [ 8,6 ]\n}"
						},
						"url": {
							"raw": "http://php.institute.uy:1038/teachers",
							"protocol": "http",
							"host": [
								"php",
								"institute",
								"uy"
							],
							"port": "1038",
							"path": [
								"teachers"
							]
						}
					},
					"response": [
						{
							"name": "Register Teacher",
							"originalRequest": {
								"method": "POST",
								"header": [
									{
										"key": "Content-Type",
										"name": "Content-Type",
										"value": "application/json",
										"type": "text"
									}
								],
								"body": {
									"mode": "raw",
									"raw": "{\n\"data\":{\n   \"user\":{\n       \"document\": \"4622900-4\",\n       \"name\": \"Jorge AKA Búho salvaje\",\n       \"birthday\": \"24/01/1994\",\n       \"registeredSince\": \"08/03/2019\",\n       \"phones\": [\"094793622\",\"09937659\"]\n   },\n\n   \"teacher\":{\n       \"grade\": 8,\n       \"titles\": [\"Profesorado en Programación\",\"Doctorado en chupar pijas\"]\n   }\n }\n}"
								},
								"url": {
									"raw": "http://php.institute.uy:1038/registerTeacher",
									"protocol": "http",
									"host": [
										"php",
										"institute",
										"uy"
									],
									"port": "1038",
									"path": [
										"registerTeacher"
									]
								}
							},
							"status": "OK",
							"code": 200,
							"_postman_previewlanguage": "json",
							"header": [
								{
									"key": "Date",
									"value": "Fri, 29 Mar 2019 02:41:30 GMT"
								},
								{
									"key": "Server",
									"value": "Apache/2.4.38 (Unix) OpenSSL/1.0.2q PHP/7.3.2 mod_perl/2.0.8-dev Perl/v5.16.3"
								},
								{
									"key": "X-Powered-By",
									"value": "PHP/7.3.2"
								},
								{
									"key": "Access-Control-Allow-Origin",
									"value": "*"
								},
								{
									"key": "Content-Length",
									"value": "251"
								},
								{
									"key": "Keep-Alive",
									"value": "timeout=5, max=100"
								},
								{
									"key": "Connection",
									"value": "Keep-Alive"
								},
								{
									"key": "Content-Type",
									"value": "application/json;charset=utf-8"
								}
							],
							"cookie": [],
							"body": "{\n    \"user\": {\n        \"document\": \"4622900-4\",\n        \"name\": \"Jorge AKA Búho salvaje\",\n        \"birthday\": \"24/01/1994\",\n        \"registeredSince\": \"08/03/2019\",\n        \"phones\": [\n            \"094793622\",\n            \"09937659\"\n        ]\n    },\n    \"teacher\": {\n        \"grade\": 8,\n        \"titles\": [\n            \"Profesorado en Programación\",\n            \"Doctorado en chupar pijas\"\n        ]\n    }\n}"
						}
					]
				},
				{
					"name": "Register Student",
					"request": {
						"method": "POST",
						"header": [
							{
								"key": "Content-Type",
								"name": "Content-Type",
								"value": "application/json",
								"type": "text"
							}
						],
						"body": {
							"mode": "raw",
							"raw": "{\n    \"document\": \"48230051\",\n    \"username\" : \"Ben-10\",\n    \"password\": \"12345678\",\n    \"name\": \"Ben\",\n    \"surname\": \"Tenyson\",\n    \"email\": \"ben10@gmail.com\",\n    \"birthday\": \"2008-03-08\",\n    \"phones\": [\"099377659\",\"099377659\"]\n}"
						},
						"url": {
							"raw": "http://php.institute.uy:1038/students",
							"protocol": "http",
							"host": [
								"php",
								"institute",
								"uy"
							],
							"port": "1038",
							"path": [
								"students"
							]
						},
						"description": "Creates a new Student into the database"
					},
					"response": []
				},
				{
					"name": "Exists User",
					"request": {
						"method": "GET",
						"header": [],
						"body": {
							"mode": "raw",
							"raw": ""
						},
						"url": {
							"raw": "http://php.institute.uy:1038/users/exists?id=@",
							"protocol": "http",
							"host": [
								"php",
								"institute",
								"uy"
							],
							"port": "1038",
							"path": [
								"users",
								"exists"
							],
							"query": [
								{
									"key": "id",
									"value": "@"
								}
							]
						}
					},
					"response": []
				},
				{
					"name": "Get All Subjects",
					"request": {
						"method": "GET",
						"header": [],
						"body": {
							"mode": "raw",
							"raw": ""
						},
						"url": {
							"raw": "http://php.institute.uy:1038/subjects",
							"protocol": "http",
							"host": [
								"php",
								"institute",
								"uy"
							],
							"port": "1038",
							"path": [
								"subjects"
							]
						}
					},
					"response": []
				},
				{
					"name": "Get All Areas",
					"request": {
						"method": "GET",
						"header": [],
						"body": {
							"mode": "raw",
							"raw": ""
						},
						"url": {
							"raw": "http://php.institute.uy:1038/areas",
							"protocol": "http",
							"host": [
								"php",
								"institute",
								"uy"
							],
							"port": "1038",
							"path": [
								"areas"
							]
						}
					},
					"response": []
				},
				{
					"name": "Get Admissions",
					"request": {
						"auth": {
							"type": "noauth"
						},
						"method": "GET",
						"header": [
							{
								"key": "Content-Type",
								"name": "Content-Type",
								"type": "text",
								"value": "application/json"
							}
						],
						"body": {
							"mode": "raw",
							"raw": ""
						},
						"url": {
							"raw": "http://php.institute.uy:1038/admissions",
							"protocol": "http",
							"host": [
								"php",
								"institute",
								"uy"
							],
							"port": "1038",
							"path": [
								"admissions"
							]
						}
					},
					"response": []
				}
			]
		},
		{
			"name": "User",
			"item": [
				{
					"name": "Students",
					"protocolProfileBehavior": {
						"disableBodyPruning": true
					},
					"request": {
						"auth": {
							"type": "bearer",
							"bearer": [
								{
									"key": "token",
									"value": "eyJ0eXAiOiJKV1QiLCJhbGciOiJIUzUxMiJ9.eyJpYXQiOjE1NTk2ODE2MDAsImp0aSI6IkxHTU1td0RkcEdvRzJBdkV4MEJKRlIxUUJIYWdKYlhsNStVUzBabFwvc2pzPSIsImlzcyI6InBocC5pbnN0aXR1dGUudXkiLCJuYmYiOjE1NTk2ODE2MDUsImV4cCI6MTU1OTY4ODgwNSwiZGF0YSI6eyJpZCI6MTUsInVzZXJuYW1lIjoiRmxhc2giLCJ0eXBlIjoiVGVhY2hlciJ9fQ.TqK6aPIX_hXMTtwy8zSZi1YG8yjMIdVopk7oq6jtaCdvNQAHZIMJL_ZbKm9nR8mePtL02mYH2y92PUiFymiUow",
									"type": "string"
								}
							]
						},
						"method": "GET",
						"header": [
							{
								"key": "Content-Type",
								"name": "Content-Type",
								"value": "application/json",
								"type": "text"
							}
						],
						"body": {
							"mode": "raw",
							"raw": "{\n\t\n}"
						},
						"url": {
							"raw": "http://php.institute.uy:1038/students",
							"protocol": "http",
							"host": [
								"php",
								"institute",
								"uy"
							],
							"port": "1038",
							"path": [
								"students"
							]
						},
						"description": "Get all students or filter them adding a key => value body"
					},
					"response": []
				},
				{
					"name": "Update Teacher",
					"request": {
						"auth": {
							"type": "bearer",
							"bearer": [
								{
									"key": "token",
									"value": "eyJ0eXAiOiJKV1QiLCJhbGciOiJIUzUxMiJ9.eyJpYXQiOjE1NTk2NzE1ODksImp0aSI6IlV3YkgyTE4zWWdSd3JYWjB3bjdkY0lzS3BGQ2ZuZFlNT0E2blk5cGQ1T3c9IiwiaXNzIjoicGhwLmluc3RpdHV0ZS51eSIsIm5iZiI6MTU1OTY3MTU5NCwiZXhwIjoxNTU5Njc4Nzk0LCJkYXRhIjp7ImlkIjoyLCJ1c2VybmFtZSI6ImFndXMyIiwidHlwZSI6IlRlYWNoZXIifX0.yfJyQFzR20azzquxSZHsR3JkZQhvaA_BfutQdSdbCrGuLc_PxuRI7y7Tdxg2JW77d_-mBHlIzRCkOccxxiDAGA",
									"type": "string"
								}
							]
						},
						"method": "PATCH",
						"header": [
							{
								"key": "Content-Type",
								"name": "Content-Type",
								"value": "application/json",
								"type": "text"
							}
						],
						"body": {
							"mode": "raw",
							"raw": "{\n    \"email\" : \"agustinkurosaki5@gmail.com\",\n    \"password\": \"1234\",\n    \"add\":{\n       \t\"phones\":[\"099358229\"]\n    },\n    \"remove\":{\n      \t\"phones\":[\"099358228\"]\n    }\n}"
						},
						"url": {
							"raw": "http://php.institute.uy:1038/teachers",
							"protocol": "http",
							"host": [
								"php",
								"institute",
								"uy"
							],
							"port": "1038",
							"path": [
								"teachers"
							]
						}
					},
					"response": []
				},
				{
					"name": "Update Student",
					"request": {
						"auth": {
							"type": "bearer",
							"bearer": [
								{
									"key": "token",
									"value": "eyJ0eXAiOiJKV1QiLCJhbGciOiJIUzUxMiJ9.eyJpYXQiOjE1NTk2NjQ5NTQsImp0aSI6Inp6Z3FtSTh2M3p0RllXQzJOV09yU21NRVdYdTNncmZnd2tEcHV4UlVJNEU9IiwiaXNzIjoicGhwLmluc3RpdHV0ZS51eSIsIm5iZiI6MTU1OTY2NDk1OSwiZXhwIjoxNTU5NjcyMTU5LCJkYXRhIjp7ImlkIjoxLCJ1c2VybmFtZSI6ImRhc2hlciIsInR5cGUiOiJTdHVkZW50In19.UEcpeYu54okoY1y3vGFhYNPQ9Xb7LylkyU5wIXX9zOl46JLHLG1kAXtLZbz25ksNhoy1HMgr35iJXCcfn3--rw",
									"type": "string"
								}
							]
						},
						"method": "PATCH",
						"header": [
							{
								"key": "Content-Type",
								"name": "Content-Type",
								"value": "application/json",
								"type": "text"
							}
						],
						"body": {
							"mode": "raw",
							"raw": "{\n    \"password\": \"1234\",\n    \"email\": \"agustinkurosaki56@gmail.com\",\n    \"add\":{\n    \t\"phones\": [\"098385228\"]\n    },\n    \"remove\":{\n       \t\"phones\": [\"099385228\"]\n    }\n}"
						},
						"url": {
							"raw": "http://php.institute.uy:1038/students",
							"protocol": "http",
							"host": [
								"php",
								"institute",
								"uy"
							],
							"port": "1038",
							"path": [
								"students"
							]
						},
						"description": "Overwrites a student with new information"
					},
					"response": []
				},
				{
					"name": "Enroll Stu Subject",
					"request": {
						"auth": {
							"type": "bearer",
							"bearer": [
								{
									"key": "token",
									"value": "eyJ0eXAiOiJKV1QiLCJhbGciOiJIUzUxMiJ9.eyJpYXQiOjE1NjI1NDE3MjksImp0aSI6IjNwMTU3V1RyWm5SR3VCWlMzYm41QWlJN3RKTEFESCtFWlNLcmRyd0xvNUE9IiwiaXNzIjoibG9jYWxob3N0IiwibmJmIjoxNTYyNTQxNzI5LCJleHAiOjE1NjI1NDg5MjksImRhdGEiOnsiaWQiOjEwLCJ1c2VybmFtZSI6IkJlbi0xMCIsInR5cGUiOjJ9fQ.T5YHvkrNdD98q0aL1DfxFljfpdIeohfwVYi6sKl2yoMh-HDgdJw_v3annmEWfvkagZ7EQ4RjEKJ25-0RfEjH8w",
									"type": "string"
								}
							]
						},
						"method": "POST",
						"header": [
							{
								"key": "Content-Type",
								"name": "Content-Type",
								"value": "application/json",
								"type": "text"
							}
						],
						"body": {
							"mode": "raw",
							"raw": "{\n\t\"id_subject\":6\n}"
						},
						"url": {
							"raw": "http://php.institute.uy:1038/subjects/enroll",
							"protocol": "http",
							"host": [
								"php",
								"institute",
								"uy"
							],
							"port": "1038",
							"path": [
								"subjects",
								"enroll"
							]
						},
						"description": "Creates an instance of Inscription, connecting a Student to a Subject"
					},
					"response": []
				},
				{
					"name": "Get Lessons",
					"request": {
						"auth": {
							"type": "bearer",
							"bearer": [
								{
									"key": "token",
									"value": "eyJ0eXAiOiJKV1QiLCJhbGciOiJIUzUxMiJ9.eyJpYXQiOjE1NjI1ODU0MjEsImp0aSI6ImMzTzRockd2RUFSems0c0ZZZGw2aVdoZFFRbVdmZTVTNTYwbVpHWDE3S0k9IiwiaXNzIjoibG9jYWxob3N0IiwibmJmIjoxNTYyNTg1NDIxLCJleHAiOjE1NjI1OTI2MjEsImRhdGEiOnsiaWQiOjMsInVzZXJuYW1lIjoicGV0dGV5NTA5IiwidHlwZSI6MX19.YnaDMIfiiPrdm7I-m9IR7Sa3ykyFltNePVmhTvhsG5PAJXrF0HteR4DcAGDR9Wl0NllsMaVAXFjmlkJk8oITBg",
									"type": "string"
								}
							]
						},
						"method": "GET",
						"header": [],
						"body": {
							"mode": "raw",
							"raw": ""
						},
						"url": {
							"raw": "http://php.institute.uy:1038/lessons",
							"protocol": "http",
							"host": [
								"php",
								"institute",
								"uy"
							],
							"port": "1038",
							"path": [
								"lessons"
							]
						}
					},
					"response": []
				},
				{
					"name": "Enroll Stu Lesson",
					"request": {
						"auth": {
							"type": "bearer",
							"bearer": [
								{
									"key": "token",
									"value": "eyJ0eXAiOiJKV1QiLCJhbGciOiJIUzUxMiJ9.eyJpYXQiOjE1NjI1NDg4NDYsImp0aSI6Im5LQWlCME9JV1k4ZGhDZERlUHJXYTdwSUlhRnVwVUgraGlpdzE3b3lpNnc9IiwiaXNzIjoibG9jYWxob3N0IiwibmJmIjoxNTYyNTQ4ODQ2LCJleHAiOjE1NjI1NTYwNDYsImRhdGEiOnsiaWQiOjEwLCJ1c2VybmFtZSI6IkJlbi0xMCIsInR5cGUiOjJ9fQ.cx5YwVKItYKEknJzRO_8U2PsEjtHEUAb7dYDYYr0Z2A31BRR4rS7eLdz4MbYAukh2kbEUEV0oalnpgpSpl3NPg",
									"type": "string"
								}
							]
						},
						"method": "POST",
						"header": [
							{
								"key": "Content-Type",
								"name": "Content-Type",
								"value": "application/json",
								"type": "text"
							}
						],
						"body": {
							"mode": "raw",
							"raw": "{\n\t\"id_lesson\":1\n}"
						},
						"url": {
							"raw": "http://php.institute.uy:1038/lessons/enroll",
							"protocol": "http",
							"host": [
								"php",
								"institute",
								"uy"
							],
							"port": "1038",
							"path": [
								"lessons",
								"enroll"
							]
						}
					},
					"response": []
				},
				{
					"name": "Get Stu Subjects",
					"request": {
						"auth": {
							"type": "bearer",
							"bearer": [
								{
									"key": "token",
									"value": "eyJ0eXAiOiJKV1QiLCJhbGciOiJIUzUxMiJ9.eyJpYXQiOjE1NjI1Nzc3MTksImp0aSI6IjhwSGNLUGVuRXpVXC82NW5URktRd3pCNG1RU1czbWxUbTFRNW4zQytkYTdrPSIsImlzcyI6ImxvY2FsaG9zdCIsIm5iZiI6MTU2MjU3NzcxOSwiZXhwIjoxNTYyNTg0OTE5LCJkYXRhIjp7ImlkIjozMzcsInVzZXJuYW1lIjoia2lsbWVyOTAzIiwidHlwZSI6Mn19.v4tlRpduhCftzrnbJA4QWEW_J6tMD6Zg_D3Wd9w7NpPRCcT3TrTvHpCsx9rG5ORGbS46beANlokD-zaKdjKJAw",
									"type": "string"
								}
							]
						},
						"method": "GET",
						"header": [],
						"body": {
							"mode": "raw",
							"raw": ""
						},
						"url": {
							"raw": "http://php.institute.uy:1038/subjects/enrolled",
							"protocol": "http",
							"host": [
								"php",
								"institute",
								"uy"
							],
							"port": "1038",
							"path": [
								"subjects",
								"enrolled"
							]
						}
					},
					"response": []
				},
				{
					"name": "Enroll Many Lesson ",
					"request": {
						"auth": {
							"type": "bearer",
							"bearer": [
								{
									"key": "token",
									"value": "eyJ0eXAiOiJKV1QiLCJhbGciOiJIUzUxMiJ9.eyJpYXQiOjE1NjI1ODA3NTksImp0aSI6ImkzOTNDVkVPamlBZHFyM0JRXC9MTm5rNnRLeTRtMU4reG1EbVdEQ01ZQTZvPSIsImlzcyI6ImxvY2FsaG9zdCIsIm5iZiI6MTU2MjU4MDc1OSwiZXhwIjoxNTYyNTg3OTU5LCJkYXRhIjp7ImlkIjozMzcsInVzZXJuYW1lIjoia2lsbWVyOTAzIiwidHlwZSI6Mn19.ZyhG_uBix-kTaPr-PaDqJFzGHYKL1T5YBO6SOWpFEt6L8fWrpJasbpq1UymkA11PdruwujxkgrSdfjy_-TNQPw",
									"type": "string"
								}
							]
						},
						"method": "POST",
						"header": [
							{
								"key": "Content-Type",
								"name": "Content-Type",
								"value": "application/json",
								"type": "text"
							}
						],
						"body": {
							"mode": "raw",
							"raw": "[1,2,3,4,5,6,7,8,9,10]\t"
						},
						"url": {
							"raw": "http://php.institute.uy:1038/lessons/enroll",
							"protocol": "http",
							"host": [
								"php",
								"institute",
								"uy"
							],
							"port": "1038",
							"path": [
								"lessons",
								"enroll"
							]
						}
					},
					"response": []
				},
				{
					"name": "Get All Teachers",
					"request": {
						"auth": {
							"type": "bearer",
							"bearer": [
								{
									"key": "token",
									"value": "eyJ0eXAiOiJKV1QiLCJhbGciOiJIUzUxMiJ9.eyJpYXQiOjE1NjI1NzI3NzYsImp0aSI6InhvRmNBbzl4eVdsTlJmTDBpbWw4M0tVaVo1V0lxSE9hNFJZNThSTXhGVDg9IiwiaXNzIjoibG9jYWxob3N0IiwibmJmIjoxNTYyNTcyNzc2LCJleHAiOjE1NjI1Nzk5NzYsImRhdGEiOnsiaWQiOjEsInVzZXJuYW1lIjoia2lsbWVyNzY5IiwidHlwZSI6MH19.xLdStyq21KZckNuRkf8z6KKcTvKRrKmyN40EMztG748IrKZ-uRwkNj9RyPeL_Tcx4fXm-pladYTYvGPLg-loeA",
									"type": "string"
								}
							]
						},
						"method": "GET",
						"header": [],
						"body": {
							"mode": "raw",
							"raw": ""
						},
						"url": {
							"raw": "http://php.institute.uy:1038/teachers",
							"protocol": "http",
							"host": [
								"php",
								"institute",
								"uy"
							],
							"port": "1038",
							"path": [
								"teachers"
							]
						}
					},
					"response": []
				},
				{
					"name": "Get All Classrooms",
					"request": {
						"auth": {
							"type": "bearer",
							"bearer": [
								{
									"key": "token",
									"value": "eyJ0eXAiOiJKV1QiLCJhbGciOiJIUzUxMiJ9.eyJpYXQiOjE1NjI1MTQwODUsImp0aSI6Inh3WGRnXC9Vakx0aEVoR09rbXY0cDg5WXM1TDg5RFwvNUw1b0NzSlV0aUV2WT0iLCJpc3MiOiJsb2NhbGhvc3QiLCJuYmYiOjE1NjI1MTQwODUsImV4cCI6MTU2MjUyMTI4NSwiZGF0YSI6eyJpZCI6MiwidXNlcm5hbWUiOiJkYXJrcmlkZXIiLCJ0eXBlIjowfX0.08TQQgzjZIbOqzi5oZ_bWeVT9vELWNsq53AwkdUMUZVSdTv11zBdZ_5SxY547KbtIrO_q9JjyG0E6u8TCSvj7w",
									"type": "string"
								}
							]
						},
						"method": "GET",
						"header": [],
						"body": {
							"mode": "raw",
							"raw": ""
						},
						"url": {
							"raw": "http://php.institute.uy:1038/classrooms",
							"protocol": "http",
							"host": [
								"php",
								"institute",
								"uy"
							],
							"port": "1038",
							"path": [
								"classrooms"
							]
						}
					},
					"response": []
				}
			]
		}
	]
}